simulation/qsim/dancedance.msim.vcd
$comment
	File created using the following command:
		vcd file dancedance.msim.vcd -direction
$end
$date
	Fri May 30 15:01:23 2014
$end
$version
	ModelSim Version 10.1d
$end
$timescale
	1ps
$end
$scope module score_keep_vlg_vec_tst $end
$var reg 1 ! Clock $end
$var reg 1 " Reset $end
$var reg 5 # pt_0 [4:0] $end
$var reg 5 $ pt_1 [4:0] $end
$var reg 5 % pt_2 [4:0] $end
$var reg 5 & pt_3 [4:0] $end
$var wire 1 ' hex0 [6] $end
$var wire 1 ( hex0 [5] $end
$var wire 1 ) hex0 [4] $end
$var wire 1 * hex0 [3] $end
$var wire 1 + hex0 [2] $end
$var wire 1 , hex0 [1] $end
$var wire 1 - hex0 [0] $end
$var wire 1 . hex1 [6] $end
$var wire 1 / hex1 [5] $end
$var wire 1 0 hex1 [4] $end
$var wire 1 1 hex1 [3] $end
$var wire 1 2 hex1 [2] $end
$var wire 1 3 hex1 [1] $end
$var wire 1 4 hex1 [0] $end
$var wire 1 5 s0 [4] $end
$var wire 1 6 s0 [3] $end
$var wire 1 7 s0 [2] $end
$var wire 1 8 s0 [1] $end
$var wire 1 9 s0 [0] $end
$var wire 1 : s1 [4] $end
$var wire 1 ; s1 [3] $end
$var wire 1 < s1 [2] $end
$var wire 1 = s1 [1] $end
$var wire 1 > s1 [0] $end
$var wire 1 ? s2 [4] $end
$var wire 1 @ s2 [3] $end
$var wire 1 A s2 [2] $end
$var wire 1 B s2 [1] $end
$var wire 1 C s2 [0] $end
$var wire 1 D sampler $end
$scope module i1 $end
$var wire 1 E gnd $end
$var wire 1 F vcc $end
$var wire 1 G unknown $end
$var tri1 1 H devclrn $end
$var tri1 1 I devpor $end
$var tri1 1 J devoe $end
$var wire 1 K comb_3|Div0|auto_generated|divider|divider|add_sub_3_result_int[2]~2_combout $end
$var wire 1 L comb_3|Div0|auto_generated|divider|divider|add_sub_3_result_int[3]~4_combout $end
$var wire 1 M comb_3|Div0|auto_generated|divider|divider|add_sub_5_result_int[2]~2_combout $end
$var wire 1 N comb_3|Div0|auto_generated|divider|divider|add_sub_5_result_int[3]~4_combout $end
$var wire 1 O comb_3|Mod0|auto_generated|divider|divider|add_sub_3_result_int[2]~2_combout $end
$var wire 1 P comb_3|Mod0|auto_generated|divider|divider|add_sub_4_result_int[2]~2_combout $end
$var wire 1 Q comb_3|Mod0|auto_generated|divider|divider|add_sub_4_result_int[3]~4_combout $end
$var wire 1 R comb_3|Mod0|auto_generated|divider|divider|add_sub_5_result_int[3]~4_combout $end
$var wire 1 S comb_3|Div0|auto_generated|divider|divider|StageOut[18]~27_combout $end
$var wire 1 T comb_3|Div0|auto_generated|divider|divider|StageOut[17]~29_combout $end
$var wire 1 U comb_3|Div0|auto_generated|divider|divider|StageOut[16]~31_combout $end
$var wire 1 V comb_3|Div0|auto_generated|divider|divider|StageOut[15]~33_combout $end
$var wire 1 W comb_3|Div0|auto_generated|divider|divider|StageOut[22]~35_combout $end
$var wire 1 X comb_3|Div0|auto_generated|divider|divider|StageOut[21]~37_combout $end
$var wire 1 Y comb_3|Div0|auto_generated|divider|divider|StageOut[20]~38_combout $end
$var wire 1 Z comb_3|Div0|auto_generated|divider|divider|StageOut[28]~40_combout $end
$var wire 1 [ comb_3|Div0|auto_generated|divider|divider|StageOut[27]~41_combout $end
$var wire 1 \ comb_3|Div0|auto_generated|divider|divider|StageOut[26]~42_combout $end
$var wire 1 ] comb_3|Div0|auto_generated|divider|divider|StageOut[25]~44_combout $end
$var wire 1 ^ comb_3|Mod0|auto_generated|divider|divider|StageOut[18]~26_combout $end
$var wire 1 _ comb_3|Mod0|auto_generated|divider|divider|StageOut[17]~28_combout $end
$var wire 1 ` comb_3|Mod0|auto_generated|divider|divider|StageOut[16]~31_combout $end
$var wire 1 a comb_3|Mod0|auto_generated|divider|divider|StageOut[15]~33_combout $end
$var wire 1 b comb_3|Mod0|auto_generated|divider|divider|StageOut[23]~34_combout $end
$var wire 1 c comb_3|Mod0|auto_generated|divider|divider|StageOut[22]~35_combout $end
$var wire 1 d comb_3|Mod0|auto_generated|divider|divider|StageOut[21]~37_combout $end
$var wire 1 e comb_3|Mod0|auto_generated|divider|divider|StageOut[20]~39_combout $end
$var wire 1 f comb_3|Mod0|auto_generated|divider|divider|StageOut[25]~41_combout $end
$var wire 1 g a0|FA2|first|S~combout $end
$var wire 1 h a2|FA1|Co~0_combout $end
$var wire 1 i sc|Add1|auto_generated|_~1_combout $end
$var wire 1 j sc|Add1|auto_generated|_~3_combout $end
$var wire 1 k comb_3|Mod0|auto_generated|divider|divider|StageOut[28]~49_combout $end
$var wire 1 l comb_3|Div0|auto_generated|divider|divider|StageOut[23]~47_combout $end
$var wire 1 m Clock~combout $end
$var wire 1 n Clock~clkctrl_outclk $end
$var wire 1 o a0|FA1|Co~0_combout $end
$var wire 1 p a0|FA2|Co~0_combout $end
$var wire 1 q a0|FA4|second|S~0_combout $end
$var wire 1 r a0|FA4|second|S~combout $end
$var wire 1 s a1|FA4|first|S~combout $end
$var wire 1 t a0|FA3|first|S~combout $end
$var wire 1 u a0|FA1|second|S~0_combout $end
$var wire 1 v a0|FA0|first|S~combout $end
$var wire 1 w a1|FA1|Co~0_combout $end
$var wire 1 x a1|FA2|Co~0_combout $end
$var wire 1 y a1|FA3|Co~0_combout $end
$var wire 1 z a2|FA4|Co~0_combout $end
$var wire 1 { sc|Add1|auto_generated|_~0_combout $end
$var wire 1 | a1|FA2|first|S~combout $end
$var wire 1 } a2|FA2|second|S~combout $end
$var wire 1 ~ sc|Add1|auto_generated|_~2_combout $end
$var wire 1 !! a1|FA0|first|S~combout $end
$var wire 1 "! sc|Add1|auto_generated|_~4_combout $end
$var wire 1 #! sc|count[0]~8_cout $end
$var wire 1 $! sc|count[0]~10 $end
$var wire 1 %! sc|count[1]~11_combout $end
$var wire 1 &! sc|count[4]~18 $end
$var wire 1 '! sc|count[5]~19_combout $end
$var wire 1 (! sc|count[5]~20 $end
$var wire 1 )! sc|count[6]~21_combout $end
$var wire 1 *! Reset~combout $end
$var wire 1 +! sc|count[2]~13_combout $end
$var wire 1 ,! sc|count[6]~23_combout $end
$var wire 1 -! sc|count[6]~24_combout $end
$var wire 1 .! sc|count[1]~12 $end
$var wire 1 /! sc|count[2]~14 $end
$var wire 1 0! sc|count[3]~15_combout $end
$var wire 1 1! sc|count[3]~16 $end
$var wire 1 2! sc|count[4]~17_combout $end
$var wire 1 3! comb_3|Div0|auto_generated|divider|divider|add_sub_3_result_int[1]~1 $end
$var wire 1 4! comb_3|Div0|auto_generated|divider|divider|add_sub_3_result_int[2]~3 $end
$var wire 1 5! comb_3|Div0|auto_generated|divider|divider|add_sub_3_result_int[3]~5 $end
$var wire 1 6! comb_3|Div0|auto_generated|divider|divider|add_sub_3_result_int[4]~6_combout $end
$var wire 1 7! comb_3|Div0|auto_generated|divider|divider|add_sub_3_result_int[1]~0_combout $end
$var wire 1 8! comb_3|Div0|auto_generated|divider|divider|StageOut[22]~48_combout $end
$var wire 1 9! comb_3|Div0|auto_generated|divider|divider|StageOut[16]~30_combout $end
$var wire 1 :! comb_3|Div0|auto_generated|divider|divider|StageOut[15]~32_combout $end
$var wire 1 ;! comb_3|Div0|auto_generated|divider|divider|add_sub_4_result_int[1]~1 $end
$var wire 1 <! comb_3|Div0|auto_generated|divider|divider|add_sub_4_result_int[2]~2_combout $end
$var wire 1 =! comb_3|Div0|auto_generated|divider|divider|StageOut[17]~28_combout $end
$var wire 1 >! comb_3|Div0|auto_generated|divider|divider|add_sub_4_result_int[2]~3 $end
$var wire 1 ?! comb_3|Div0|auto_generated|divider|divider|add_sub_4_result_int[3]~4_combout $end
$var wire 1 @! comb_3|Div0|auto_generated|divider|divider|StageOut[18]~26_combout $end
$var wire 1 A! comb_3|Div0|auto_generated|divider|divider|add_sub_4_result_int[3]~5 $end
$var wire 1 B! comb_3|Div0|auto_generated|divider|divider|add_sub_4_result_int[4]~7_cout $end
$var wire 1 C! comb_3|Div0|auto_generated|divider|divider|add_sub_4_result_int[5]~8_combout $end
$var wire 1 D! comb_3|Div0|auto_generated|divider|divider|StageOut[23]~34_combout $end
$var wire 1 E! comb_3|Div0|auto_generated|divider|divider|StageOut[21]~36_combout $end
$var wire 1 F! comb_3|Div0|auto_generated|divider|divider|StageOut[20]~39_combout $end
$var wire 1 G! comb_3|Div0|auto_generated|divider|divider|add_sub_5_result_int[1]~1 $end
$var wire 1 H! comb_3|Div0|auto_generated|divider|divider|add_sub_5_result_int[2]~3 $end
$var wire 1 I! comb_3|Div0|auto_generated|divider|divider|add_sub_5_result_int[3]~5 $end
$var wire 1 J! comb_3|Div0|auto_generated|divider|divider|add_sub_5_result_int[4]~7_cout $end
$var wire 1 K! comb_3|Div0|auto_generated|divider|divider|add_sub_5_result_int[5]~8_combout $end
$var wire 1 L! comb_3|Div0|auto_generated|divider|divider|StageOut[28]~46_combout $end
$var wire 1 M! comb_3|Div0|auto_generated|divider|divider|add_sub_4_result_int[1]~0_combout $end
$var wire 1 N! comb_3|Div0|auto_generated|divider|divider|StageOut[27]~49_combout $end
$var wire 1 O! comb_3|Div0|auto_generated|divider|divider|add_sub_5_result_int[1]~0_combout $end
$var wire 1 P! comb_3|Div0|auto_generated|divider|divider|StageOut[26]~43_combout $end
$var wire 1 Q! comb_3|Div0|auto_generated|divider|divider|StageOut[25]~45_combout $end
$var wire 1 R! comb_3|Div0|auto_generated|divider|divider|add_sub_6_result_int[1]~1_cout $end
$var wire 1 S! comb_3|Div0|auto_generated|divider|divider|add_sub_6_result_int[2]~3_cout $end
$var wire 1 T! comb_3|Div0|auto_generated|divider|divider|add_sub_6_result_int[3]~5_cout $end
$var wire 1 U! comb_3|Div0|auto_generated|divider|divider|add_sub_6_result_int[4]~7_cout $end
$var wire 1 V! comb_3|Div0|auto_generated|divider|divider|add_sub_6_result_int[5]~8_combout $end
$var wire 1 W! comb_3|td|WideOr4~0_combout $end
$var wire 1 X! comb_3|td|leds[2]~0_combout $end
$var wire 1 Y! comb_3|td|Decoder0~0_combout $end
$var wire 1 Z! comb_3|td|WideOr3~0_combout $end
$var wire 1 [! comb_3|td|WideOr2~0_combout $end
$var wire 1 \! comb_3|td|WideOr1~0_combout $end
$var wire 1 ]! comb_3|td|WideOr0~0_combout $end
$var wire 1 ^! comb_3|Mod0|auto_generated|divider|divider|add_sub_3_result_int[1]~1 $end
$var wire 1 _! comb_3|Mod0|auto_generated|divider|divider|add_sub_3_result_int[2]~3 $end
$var wire 1 `! comb_3|Mod0|auto_generated|divider|divider|add_sub_3_result_int[3]~5 $end
$var wire 1 a! comb_3|Mod0|auto_generated|divider|divider|add_sub_3_result_int[4]~6_combout $end
$var wire 1 b! comb_3|Mod0|auto_generated|divider|divider|add_sub_3_result_int[3]~4_combout $end
$var wire 1 c! comb_3|Mod0|auto_generated|divider|divider|StageOut[18]~27_combout $end
$var wire 1 d! comb_3|Mod0|auto_generated|divider|divider|StageOut[17]~29_combout $end
$var wire 1 e! comb_3|Mod0|auto_generated|divider|divider|StageOut[16]~30_combout $end
$var wire 1 f! comb_3|Mod0|auto_generated|divider|divider|StageOut[15]~32_combout $end
$var wire 1 g! comb_3|Mod0|auto_generated|divider|divider|add_sub_4_result_int[1]~1 $end
$var wire 1 h! comb_3|Mod0|auto_generated|divider|divider|add_sub_4_result_int[2]~3 $end
$var wire 1 i! comb_3|Mod0|auto_generated|divider|divider|add_sub_4_result_int[3]~5 $end
$var wire 1 j! comb_3|Mod0|auto_generated|divider|divider|add_sub_4_result_int[4]~7_cout $end
$var wire 1 k! comb_3|Mod0|auto_generated|divider|divider|add_sub_4_result_int[5]~8_combout $end
$var wire 1 l! comb_3|Mod0|auto_generated|divider|divider|StageOut[21]~36_combout $end
$var wire 1 m! comb_3|Mod0|auto_generated|divider|divider|StageOut[20]~38_combout $end
$var wire 1 n! comb_3|Mod0|auto_generated|divider|divider|add_sub_5_result_int[1]~1 $end
$var wire 1 o! comb_3|Mod0|auto_generated|divider|divider|add_sub_5_result_int[2]~2_combout $end
$var wire 1 p! comb_3|Mod0|auto_generated|divider|divider|StageOut[23]~50_combout $end
$var wire 1 q! comb_3|Mod0|auto_generated|divider|divider|add_sub_3_result_int[1]~0_combout $end
$var wire 1 r! comb_3|Mod0|auto_generated|divider|divider|StageOut[22]~51_combout $end
$var wire 1 s! comb_3|Mod0|auto_generated|divider|divider|add_sub_5_result_int[2]~3 $end
$var wire 1 t! comb_3|Mod0|auto_generated|divider|divider|add_sub_5_result_int[3]~5 $end
$var wire 1 u! comb_3|Mod0|auto_generated|divider|divider|add_sub_5_result_int[4]~7_cout $end
$var wire 1 v! comb_3|Mod0|auto_generated|divider|divider|add_sub_5_result_int[5]~8_combout $end
$var wire 1 w! comb_3|Mod0|auto_generated|divider|divider|StageOut[27]~43_combout $end
$var wire 1 x! comb_3|Mod0|auto_generated|divider|divider|StageOut[26]~44_combout $end
$var wire 1 y! comb_3|Mod0|auto_generated|divider|divider|StageOut[25]~40_combout $end
$var wire 1 z! comb_3|Mod0|auto_generated|divider|divider|add_sub_6_result_int[1]~1 $end
$var wire 1 {! comb_3|Mod0|auto_generated|divider|divider|add_sub_6_result_int[2]~3 $end
$var wire 1 |! comb_3|Mod0|auto_generated|divider|divider|add_sub_6_result_int[3]~4_combout $end
$var wire 1 }! comb_3|Mod0|auto_generated|divider|divider|add_sub_4_result_int[1]~0_combout $end
$var wire 1 ~! comb_3|Mod0|auto_generated|divider|divider|StageOut[27]~52_combout $end
$var wire 1 !" comb_3|Mod0|auto_generated|divider|divider|StageOut[28]~42_combout $end
$var wire 1 "" comb_3|Mod0|auto_generated|divider|divider|add_sub_6_result_int[3]~5 $end
$var wire 1 #" comb_3|Mod0|auto_generated|divider|divider|add_sub_6_result_int[4]~7_cout $end
$var wire 1 $" comb_3|Mod0|auto_generated|divider|divider|add_sub_6_result_int[5]~8_combout $end
$var wire 1 %" comb_3|Mod0|auto_generated|divider|divider|StageOut[33]~48_combout $end
$var wire 1 &" comb_3|Mod0|auto_generated|divider|divider|add_sub_6_result_int[1]~0_combout $end
$var wire 1 '" comb_3|Mod0|auto_generated|divider|divider|StageOut[31]~46_combout $end
$var wire 1 (" sc|count[0]~9_combout $end
$var wire 1 )" comb_3|Mod0|auto_generated|divider|divider|add_sub_6_result_int[2]~2_combout $end
$var wire 1 *" comb_3|Mod0|auto_generated|divider|divider|add_sub_5_result_int[1]~0_combout $end
$var wire 1 +" comb_3|Mod0|auto_generated|divider|divider|StageOut[26]~45_combout $end
$var wire 1 ," comb_3|Mod0|auto_generated|divider|divider|StageOut[32]~47_combout $end
$var wire 1 -" comb_3|ud|WideOr4~0_combout $end
$var wire 1 ." comb_3|ud|leds[2]~3_combout $end
$var wire 1 /" comb_3|ud|leds[2]~5_combout $end
$var wire 1 0" comb_3|ud|leds[2]~2_combout $end
$var wire 1 1" comb_3|ud|leds[2]~4_combout $end
$var wire 1 2" comb_3|ud|Decoder0~0_combout $end
$var wire 1 3" comb_3|ud|WideOr3~0_combout $end
$var wire 1 4" comb_3|ud|WideOr2~0_combout $end
$var wire 1 5" comb_3|ud|WideOr1~2_combout $end
$var wire 1 6" comb_3|ud|WideOr1~3_combout $end
$var wire 1 7" comb_3|ud|WideOr1~5_combout $end
$var wire 1 8" comb_3|ud|WideOr1~4_combout $end
$var wire 1 9" comb_3|ud|WideOr0~2_combout $end
$var wire 1 :" comb_3|ud|WideOr0~3_combout $end
$var wire 1 ;" comb_3|ud|WideOr0~5_combout $end
$var wire 1 <" comb_3|ud|WideOr0~4_combout $end
$var wire 1 =" a0|FA2|second|S~combout $end
$var wire 1 >" a0|FA3|second|S~combout $end
$var wire 1 ?" a1|FA1|second|S~combout $end
$var wire 1 @" a1|FA2|second|S~combout $end
$var wire 1 A" a1|FA3|first|S~combout $end
$var wire 1 B" a1|FA3|second|S~combout $end
$var wire 1 C" a1|FA4|second|S~combout $end
$var wire 1 D" a2|FA0|first|S~combout $end
$var wire 1 E" a2|FA1|second|S~0_combout $end
$var wire 1 F" a2|FA2|Co~0_combout $end
$var wire 1 G" a2|FA3|second|S~combout $end
$var wire 1 H" a2|FA3|Co~0_combout $end
$var wire 1 I" a2|FA4|second|S~combout $end
$var wire 1 J" sc|count [6] $end
$var wire 1 K" sc|count [5] $end
$var wire 1 L" sc|count [4] $end
$var wire 1 M" sc|count [3] $end
$var wire 1 N" sc|count [2] $end
$var wire 1 O" sc|count [1] $end
$var wire 1 P" sc|count [0] $end
$var wire 1 Q" pt_3~combout [4] $end
$var wire 1 R" pt_3~combout [3] $end
$var wire 1 S" pt_3~combout [2] $end
$var wire 1 T" pt_3~combout [1] $end
$var wire 1 U" pt_3~combout [0] $end
$var wire 1 V" pt_2~combout [4] $end
$var wire 1 W" pt_2~combout [3] $end
$var wire 1 X" pt_2~combout [2] $end
$var wire 1 Y" pt_2~combout [1] $end
$var wire 1 Z" pt_2~combout [0] $end
$var wire 1 [" pt_1~combout [4] $end
$var wire 1 \" pt_1~combout [3] $end
$var wire 1 ]" pt_1~combout [2] $end
$var wire 1 ^" pt_1~combout [1] $end
$var wire 1 _" pt_1~combout [0] $end
$var wire 1 `" pt_0~combout [4] $end
$var wire 1 a" pt_0~combout [3] $end
$var wire 1 b" pt_0~combout [2] $end
$var wire 1 c" pt_0~combout [1] $end
$var wire 1 d" pt_0~combout [0] $end
$upscope $end
$upscope $end
$enddefinitions $end
#0
$dumpvars
0!
0"
b0 #
b0 $
b0 %
b0 &
x2
x1
x0
x/
x.
x9
x8
x7
x6
x5
x>
x=
x<
x;
x:
xC
xB
xA
x@
x?
xD
0E
1F
xG
1H
1I
1J
xK
xL
xM
xN
xO
xP
xQ
xR
xS
xT
xU
xV
xW
xX
xY
xZ
x[
x\
x]
x^
x_
x`
xa
xb
xc
xd
xe
xf
xg
xh
xi
xj
xk
xl
0m
xn
xo
xp
xq
xr
xs
xt
xu
xv
xw
xx
xy
xz
x{
x|
x}
x~
x!!
x"!
x#!
x$!
x%!
x&!
x'!
x(!
x)!
0*!
x+!
x,!
x-!
x.!
x/!
x0!
x1!
x2!
x3!
x4!
x5!
x6!
x7!
x8!
x9!
x:!
x;!
x<!
x=!
x>!
x?!
x@!
xA!
xB!
xC!
xD!
xE!
xF!
xG!
xH!
xI!
xJ!
xK!
xL!
xM!
xN!
xO!
xP!
xQ!
xR!
xS!
xT!
xU!
xV!
xW!
xX!
xY!
xZ!
x[!
x\!
x]!
x^!
x_!
x`!
xa!
xb!
xc!
xd!
xe!
xf!
xg!
xh!
xi!
xj!
xk!
xl!
xm!
xn!
xo!
xp!
xq!
xr!
xs!
xt!
xu!
xv!
xw!
xx!
xy!
xz!
x{!
x|!
x}!
x~!
x!"
x""
x#"
x$"
x%"
x&"
x'"
x("
x)"
x*"
x+"
x,"
x-"
x."
x/"
x0"
x1"
x2"
x3"
x4"
x5"
x6"
x7"
x8"
x9"
x:"
x;"
x<"
x="
x>"
x?"
x@"
xA"
xB"
xC"
xD"
xE"
xF"
xG"
xH"
xI"
0P"
0O"
0N"
0M"
0L"
0K"
0J"
0U"
0T"
0S"
0R"
0Q"
0Z"
0Y"
0X"
0W"
0V"
0_"
0^"
0]"
0\"
0["
0d"
0c"
0b"
0a"
0`"
x-
x,
x+
x*
x)
x(
x'
x4
x3
$end
#238
0n
#557
0,!
#1139
0m!
#1140
0e
#1141
0f
0y!
#1158
0]
#1274
0E!
#1275
0Q!
#1384
09!
#1396
0@!
#1399
0e!
#1403
0a
#1407
0_
#1408
0f!
#1470
0x!
#1547
0Y
0F!
#1591
06"
#1597
0."
#1706
03!
#1714
05!
#1720
0`!
#1730
0\
#1732
17!
#1737
0=!
#1746
0^
#1750
1q!
#1759
0:!
#1786
14!
#1791
0V
0l!
#1825
0^!
#1879
0-!
#1905
1_!
#1966
0z!
#1977
0n!
#1994
1&"
#2005
1*"
#2164
1K
#2172
16!
#2178
1a!
#2216
07"
#2244
0L
#2283
1O
#2298
0R!
#2363
0b!
#2379
0G!
#2404
0/"
#2407
1O!
#2455
0g!
#2483
1}!
#2555
0v
#2846
0S
#2847
0U
#2860
0d!
0p!
#2865
0c!
#2871
1M!
19"
#2946
0;!
#2987
0T
#3053
0`
#3054
08!
#3056
0l
#3068
0r!
#3645
0i!
#3679
1<!
#3683
1>!
#3725
1j!
#3811
0A!
#3891
1B!
#4104
1P
#4108
1h!
#4141
0?!
#4183
1k!
#4349
1C!
#4566
0Q
#4962
0D!
#5108
0d
#5114
0k
#5115
0c
#5117
0b
#5309
0~!
#5428
0t
#5541
0q
#5556
0w
#5579
0o
#5654
0X!
#5688
0X
#5698
0W
#5751
0L!
#5754
0N!
#5858
0!!
#5946
1o!
#5950
1s!
#5951
0t!
#6031
1u!
#6034
0u
#6118
0>"
#6218
09
#6320
0p
#6321
0g
#6408
0R
#6416
0h
#6417
0D"
#6489
1v!
#6501
0r
#6508
1M
#6512
1H!
#6529
0I!
#6609
1J!
#6858
0?"
#6970
0N
#7067
1K!
#7161
0A"
#7279
0!"
#7442
0y
#7534
0w!
#7561
0P!
#7573
0s
#7646
0+"
#7687
0E"
#8034
0]!
0Y!
#8040
0Z
#8042
0[
#8285
0="
#8287
0|
#8523
1S!
#8591
0x
#8655
1)"
#8656
0""
#8659
1{!
#8673
0:"
#8675
0z
#8736
1#"
#8874
0C"
#8878
0T!
#8958
1U!
#9117
0|!
#9122
0@"
#9124
0F"
#9194
1$"
#9229
0H"
#9230
0B"
#9253
0;"
#9416
1V!
#9424
0}
#9653
03
#9752
10"
05"
#9756
0(!
#9779
0"!
#9802
06
#9856
0#!
#9936
1$!
#9943
08"
01"
#9945
0'"
#9950
0<"
#9952
0G"
#10000
1!
b1 #
0D
#10001
08
#10016
0.!
#10096
1/!
0>
#10102
0C
#10165
0%"
#10176
01!
#10214
0)!
#10256
1&!
#10279
0\!
#10287
0[!
#10291
0,"
#10316
0Z!
#10318
0W!
#10407
0j
#10480
0~
#10496
05
#10520
0=
#10660
0I"
#10714
0'!
#10812
0("
#10963
02"
#11003
0i
#11017
04"
#11021
03"
#11022
0-"
#11026
1d"
1m
#11264
1n
#11303
0+!
#11488
0%!
#11519
0{
#11856
00!
#11970
07
#11981
02
#12023
1.
#12495
0:
#12551
02!
#12753
0B
#12817
0<
#12915
0;
#12995
1D"
1v
1!!
#13395
0A
#13626
0@
#13922
0(
#13932
0,
#13939
1'
#14268
0/
#14278
00
#14301
01
#14324
04
#14468
0?
#14930
0+
#14967
0-
#14995
0)
#15012
0*
#15684
1"!
#16658
19
#16680
1C
#16717
1("
#17233
1>
#20000
b11 #
b1 $
0!
b10 #
1D
#20833
1c"
#21026
0m
0d"
1_"
#21264
0n
#22995
0D"
0v
0!!
#23581
1v
#23582
1!!
#23584
1D"
#26867
1u
#27691
1?"
#28520
1E"
#30000
b1 %
1!
b11 #
0D
#30834
18
#30873
1Z"
#31026
1d"
1m
#31240
1j
#31264
1n
#31353
1=
#32321
1%!
#32995
0D"
0v
0!!
#33139
1O"
1P"
#33382
0u
#33383
1o
#33586
1B
#34007
1.!
#34033
0%!
#34050
0$!
#34075
0("
#34206
0?"
#34280
1y!
#34297
1]
#34465
1+!
#34508
1%!
#34696
00"
#34698
13"
1-"
09"
#34700
15"
16"
#34701
14"
#34732
1:"
#34930
1'"
#35035
0E"
#35065
1z!
#35091
0&"
#35134
1R!
#35145
0{!
#35214
0S!
#35312
1;"
#35325
17"
#35523
0)"
#35603
1|!
#35684
0"!
#35952
03"
#35953
0-"
#35967
05"
#35968
10"
19"
#36089
1="
#36091
1|
#36129
1<"
#36140
18"
#36620
00"
15"
#36621
09"
#36658
09
#36680
0C
#36696
1$!
#36717
1("
#36731
1!!
#36926
1@"
#36927
1}
#36971
1D"
#37154
0%!
#37233
0>
#37349
08
#37755
0j
#37868
0=
#37983
1~
#38679
1)
#38785
0/!
#38806
0+!
#38809
0.!
#38836
1%!
#38889
1/!
#39267
1+!
#39420
1"!
#39774
17
#40000
b111 #
b11 $
b1 &
b101 #
b10 $
0!
b100 #
1D
#40101
0B
#40118
0'
#40119
1(
#40432
0$!
#40453
0("
#40512
1.!
#40592
0/!
#40621
1<
#40656
1C
#40833
0c"
#40843
1^"
1U"
#40873
1b"
#40890
0%!
#40898
1A
#40969
1>
#40970
0+!
#41026
0m
0d"
0_"
#41050
10!
#41264
0n
#42995
0D"
1v
0!!
#43382
1u
#43383
0o
#43581
0v
#43582
1!!
#43584
1D"
#44299
1?"
#45128
1E"
#46089
0="
#46091
0|
#46734
1="
1g
0"!
#46926
0@"
#46927
0}
#46967
1|
#47259
1h
#47260
0D"
#47263
0E"
#47349
18
#47746
1$!
#47767
1("
#47802
1@"
#47803
1}
#47826
0.!
#47906
1/!
#47961
1=
#48204
1%!
#48284
1+!
#48364
00!
#50000
1!
b101 #
0D
#50267
0}
#50268
1F"
#50945
0C
#51026
1d"
1m
#51096
1G"
#51264
1n
#51323
0~
#52146
0+!
#52147
1i
#52995
1D"
1v
0!!
#53000
10!
#53139
xM"
#53710
1w
#53713
0?"
#53862
0h
#53865
1E"
#54010
x1!
#54036
x0!
#54238
0A
#54413
xE!
#54468
x2!
#54542
0E"
#54547
xf!
#54582
xN!
#54693
x~!
#54770
1@
#54898
x:!
#54930
xl!
#55201
xM
#55205
xH!
#55331
xg!
#55357
x}!
#55411
xh!
#55603
xT!
#55663
xN
#55683
xU!
#55684
1"!
#55718
xo!
#55722
xs!
#55777
x|!
#55789
xP
#55833
x%"
#55855
x""
#55869
xQ
#55935
x#"
#55937
xM!
#55981
x7"
#56012
x;!
#56092
x>!
#56141
xV!
#56180
xR
#56393
x$"
#56398
0@"
#56400
0F"
#56470
x<!
#56550
x?!
#56658
19
#56680
1C
#56696
0$!
#56717
0("
#56745
1x
#56776
1.!
#56796
x8"
#56949
x-"
#56950
x3"
#56954
x4"
#57004
x\!
#57012
x[!
#57041
xZ!
#57043
xW!
#57144
x'"
#57149
x<"
#57154
0%!
#57233
0>
#57234
1+!
#57375
0=
#57384
1B"
#60000
b11 %
b10 %
b111 #
b11 $
0!
b110 #
1D
#60093
0<
#60775
x(
#60833
1c"
#60853
1Y"
#60873
0Z"
#60894
x-
#60932
x)
#60941
x*
#60993
x/
#61003
x0
#61026
x1
0m
0d"
1_"
#61049
x4
#61069
1;
#61138
x'
#61264
0n
#62995
0D"
0v
1!!
#63581
1v
#63582
0!!
#63584
1D"
#63710
0w
#63713
1?"
#63865
1E"
#64296
1w
#64299
0?"
#65128
0E"
#66405
1?"
#66731
1!!
#66864
1o
#66867
0u
#66971
0D"
#66973
0?"
#67691
1?"
#67696
0w
#67802
1E"
#68517
1h
#68520
0E"
#69420
0"!
#69570
0="
#69571
1p
#69572
0|
#69574
0x
#69576
1>"
#70000
1!
b111 #
0D
#70212
0G"
#70213
0B"
#70412
1A"
#70432
1$!
#70453
1("
#70512
0.!
#70656
0C
#70834
08
#70890
1%!
1G"
#70892
1B"
#70969
1>
#70970
0+!
#71026
1d"
1m
#71264
1n
#71353
1=
#71525
1}
#72581
1~
#72995
1D"
0v
0!!
#73139
xL"
#73255
07
#73260
16
#73382
1u
#73404
1+!
#73862
0h
#73865
1E"
#74054
x&!
#74206
0?"
#74211
1w
#74512
x'!
#74523
x9!
#74538
xe!
#74845
x3!
#74858
x8!
xr!
#74871
x7!
#74889
xq!
#74925
x4!
#74964
x^!
#75035
0E"
#75044
x_!
#75303
xK
#75383
xL
#75422
xO
#75496
1A
#75502
xb!
#75652
xL!
#75658
xI!
#75684
1"!
#75738
xJ!
#75839
xt!
#75864
xk
#75919
xu!
#76196
xK!
#76377
xv!
#76658
09
#76680
1C
#76690
xP!
#76692
xQ!
#76696
0$!
#76717
0("
#76776
1.!
#76856
0/!
#76870
x!"
#76899
1@"
#76936
11!
#77154
0%!
#77163
x]!
xY!
#77169
xZ
x]
#77171
x[
#77233
0>
#77234
0+!
#77349
18
#77422
xw!
#77528
xy!
#77531
xf
#77534
x+"
#77868
0=
#78006
xR!
#78086
xS!
#78214
x,"
#78313
xz!
#78339
x&"
#78393
x{!
#78543
x)"
#78561
x:"
#79141
x;"
#79216
x9"
#79640
x0"
x5"
#80000
b1111 #
b111 $
b11 &
b1011 #
b101 $
b10 &
b1001 #
b100 $
0!
b1000 #
1D
#80462
x1"
#80594
1<
#80833
1a"
0c"
#80843
0^"
1T"
0U"
#80853
1]"
#80873
0b"
#81026
0m
0d"
0_"
#81110
x2
#81152
x.
#81264
0n
#82995
0D"
1v
1!!
#83382
0u
#83581
0v
#83582
0!!
#83584
1D"
#83865
1E"
#84206
1?"
#84211
0w
#84451
x,
#84452
0E"
#85035
1E"
#86261
1t
#86278
0E"
#86282
1h
#86422
0o
#86643
0A"
#86648
1r
#86734
0"!
#86899
0@"
#86901
0}
#86971
0>"
#87121
0G"
#87123
0B"
#87260
0D"
#87349
08
#87715
1C"
#87720
1s
#87746
1$!
#87767
1("
#87826
0.!
#87868
1=
#87906
1/!
#87957
0~
#87986
x1!
#88172
0i
#88204
1%!
#88540
1I"
#88998
01!
#89078
1&!
#89128
1="
#89129
0p
#89130
1|
#89134
1>"
#89290
1}
#89399
1{
#89536
0'!
#89965
1@"
#89966
0}
#89967
1F"
#89968
0r
#89970
1A"
#90000
b11 %
1!
b1001 #
0D
#90410
x&!
#90450
1B"
#90594
0<
#90643
15
#90794
1H"
#90795
0@
#90808
0;
#90868
x'!
#90872
0A
#90873
1Z"
#90945
0C
#91026
1d"
1m
#91035
0C"
#91040
0s
#91264
1n
#91336
1:
#92348
1?
#92813
17
#92995
1D"
1v
1!!
#93139
xK"
#93660
1<
#93696
x,!
#93963
05
#94014
x(!
#94135
1;
#94472
x)!
